{
  "type": "service_account",
  "project_id": "ultra-tendril-218004",
  "private_key_id": "1c2fec99a93a26ee1501380f6f623a1b2cf81ab6",
  "private_key": "-----BEGIN PRIVATE KEY-----\nMIIEvwIBADANBgkqhkiG9w0BAQEFAASCBKkwggSlAgEAAoIBAQCiQugIocmmwd5o\n6k/CVrKB//k7FICD7Q1DHJawwI7Akfq/JAF+lBhDRGXEn6EOCwqfT5ctHcBOwUwP\nvLaMKnYznsa1ryftN2lzJ27kHtScY++TtBFwFSSq6tbTq6JUxOeuxXWvIIqnT2xS\nBt3aoJEovZhGNiDt6E3Fu64y/URaXP1IJj6wZ5Ys7Icja0geHKZlTIgrkbFtdEgD\n7RGznOceYxeRE/aGLfyBZcf5O6DoUBIFBPaIeR4rYdI6Jv983V+s4aPpHLdfHHK/\nh2XZV3ZYUUlu3JXh4SIscbwhk8bmLMXKIfG8kFE9EYAjF/gdAWEeYQ0mbxRoDRKj\nlkpxUZDNAgMBAAECggEAC9jLNKrNUd0jQNvkrWQjkzLDeWEL6LXuIImDO2NKY5HK\nRy+DjWtAzJPUmKhtUPIU7otC1s2D3NbSQm7ikXVzMl3Ov8qf+rrvj8kKrgyjNMo7\nc82zR+Xp9VxWiYH6mj+oc732fkNnuYNRaGQYdBiCPgF+ZJfvS7dzit2Nqyrgf/a0\nHxbwsKuxMjFo+cSK0qYsZoIFMfPSLPBeUTGH5ONJnJVcwzRqc5y1sLVsy1+dW87X\n1Cfa+uEpBbRZKzWzTqvwqxO591YjAzETUZaBv2rj8Yl0r49VJRJjzKxKG0TRb9gU\n2jV9aRpoc7HraM+SsyHJyvsJWVwFy4FA2K5dB3WD+QKBgQDZDHcyBC+MaEmgnc9z\nwpGzd1xgjQ46q5ebj1RJIzodSvZKriMG9YjFN9pH2PkH6Wzy6eTsOg9XEdgFH3fk\nUDKipkuYXSNervOwqfTc9+30syUyEl631r1vWfUSe5G0xztJy9tDdM9rLky23MhH\nvjqsvGsIXIa/M0Uj4j8fvJ+4WQKBgQC/YW4jJFFwzf90E8ZE585SjJQgODjrrN1i\n/X0Ip3iRZc1KHvJmEt5CU4oAlbo6VDc2yhHMElCMUoCA0ADDB1z6Zl9q9XN53kJn\nEc4wTdIr73AI/ISbQ/OhQKaOpRtn9bFUfmA9OgtnyMcgM8K2SNdbRByjVj+ss63s\n7keHWBzNlQKBgQCTwGWfubO4jAGbAfKHperTVayf2UXXcJna/n3s77sO18nDWrlj\ncl+xiWzhPfWAikltLwV0Pa3VosL/8cUGugVOLZAGX1jFiqk/GOMkTO5ChnUKmfC6\niscX9w/ajh3JB1r3yHsxd2H/X1w/mxoHpJqCnhzqazobDEbDv68i5p9/uQKBgQCo\nTKUPcGPSQMXSLYWhmPyfKZMl1mtwDd/Oqr7m+meT7aOf+CEQ1KzyRQbKRuGzY9X+\nb6tA/CYrkG4DWWgiGnqQlbB5ngqD9IoOm+DoJ7eY/YJX1MFEzXgVqYYPUXENdkoQ\n1OYLUd0v0qgSUJJ9vQbt8rMAjNuII6bjAhSTGFCUFQKBgQC0Sy6d/GC2Un69P3Kb\nuskP2zJf0gW/cprEhjvO+lRUPKPSLM2FyGVRdOiIfZxCyQ0/X3mrKmxIbWBFwKst\nk3k+JL+InHHq4ZEEsGg9h7UKwJtjxK0JN82Lmvqw+ygWRT+B+lVtka5Vg+KK9xm1\nVrort9z2P8JTkErOZXYPibC1fA==\n-----END PRIVATE KEY-----\n",
  "client_email": "cuenta-test@ultra-tendril-218004.iam.gserviceaccount.com",
  "client_id": "116769918063128603808",
  "auth_uri": "https://accounts.google.com/o/oauth2/auth",
  "token_uri": "https://oauth2.googleapis.com/token",
  "auth_provider_x509_cert_url": "https://www.googleapis.com/oauth2/v1/certs",
  "client_x509_cert_url": "https://www.googleapis.com/robot/v1/metadata/x509/cuenta-test%40ultra-tendril-218004.iam.gserviceaccount.com",
  "universe_domain": "googleapis.com"
}
